%!PS-Adobe-2.0 EPSF-2.0
%%BoundingBox:  0 0 567 546
%%Title: AtlasExample.eps: single inclusive jets
%%Creator: ROOT Version 6.20/06
%%CreationDate: Tue Feb 23 17:29:46 2021
%%DocumentNeededResources: ProcSet (FontSetInit)
%%EndComments
%%BeginProlog
80 dict begin
/s {stroke} def /l {lineto} def /m {moveto} def /t {translate} def
/r {rotate} def /rl {roll}  def /R {repeat} def
/d {rlineto} def /rm {rmoveto} def /gr {grestore} def /f {eofill} def
/c {setrgbcolor} def /black {0 setgray} def /sd {setdash} def
/cl {closepath} def /sf {scalefont setfont} def /lw {setlinewidth} def
/box {m dup 0 exch d exch 0 d 0 exch neg d cl} def
/NC{systemdict begin initclip end}def/C{NC box clip newpath}def
/bl {box s} def /bf {gsave box gsave f grestore 1 lw [] 0 sd s grestore} def /Y { 0 exch d} def /X { 0 d} def 
/K {{pop pop 0 moveto} exch kshow} bind def
/ita {/ang 15 def gsave [1 0 ang dup sin exch cos div 1 0 0] concat} def 
/mp {newpath /y exch def /x exch def} def
/side {[w .77 mul w .23 mul] .385 w mul sd w 0 l currentpoint t -144 r} def
/mr {mp x y w2 0 360 arc} def /m24 {mr s} def /m20 {mr f} def
/mb {mp x y w2 add m w2 neg 0 d 0 w neg d w 0 d 0 w d cl} def
/mt {mp x y w2 add m w2 neg w neg d w 0 d cl} def
/w4 {w 4 div} def
/w6 {w 6 div} def
/w8 {w 8 div} def
/m21 {mb f} def /m25 {mb s} def /m22 {mt f} def /m26{mt s} def
/m23 {mp x y w2 sub m w2 w d w neg 0 d cl f} def
/m27 {mp x y w2 add m w3 neg w2 neg d w3 w2 neg d w3 w2 d cl s} def
/m28 {mp x w2 sub y w2 sub w3 add m w3 0 d  0 w3 neg d w3 0 d 0 w3 d w3 0 d  0 w3 d w3 neg 0 d 0 w3 d w3 neg 0 d 0 w3 neg d w3 neg 0 d cl s } def
/m29 {mp gsave x w2 sub y w2 add w3 sub m currentpoint t 4 {side} repeat cl fill gr} def
/m30 {mp gsave x w2 sub y w2 add w3 sub m currentpoint t 4 {side} repeat cl s gr} def
/m31 {mp x y w2 sub m 0 w d x w2 sub y m w 0 d x w2 sub y w2 add m w w neg d x w2 sub y w2 sub m w w d s} def
/m32 {mp x y w2 sub m w2 w d w neg 0 d cl s} def
/m33 {mp x y w2 add m w3 neg w2 neg d w3 w2 neg d w3 w2 d cl f} def
/m34 {mp x w2 sub y w2 sub w3 add m w3 0 d  0 w3 neg d w3 0 d 0 w3 d w3 0 d  0 w3 d w3 neg 0 d 0 w3 d w3 neg 0 d 0 w3 neg d w3 neg 0 d cl f } def
/m35 {mp x y w2 add m w2 neg w2 neg d w2 w2 neg d w2 w2 d w2 neg w2 d x y w2 sub m 0 w d x w2 sub y m w 0 d s} def
/m36 {mb x w2 sub y w2 add m w w neg d x w2 sub y w2 sub m w w d s} def
/m37 {mp x y m w4 neg w2 d w4 neg w2 neg d w2 0 d  w4 neg w2 neg d w2 0 d w4 neg w2 d w2 0 d w4 neg w2 d w4 neg w2 neg d cl s} def
/m38 {mp x w4 sub y w2 add m w4 neg w4 neg d 0 w2 neg d w4 w4 neg d w2 0 d w4 w4 d 0 w2 d w4 neg w4 d w2 neg 0 d x y w2 sub m 0 w d x w2 sub y m w 0 d cl s} def
/m39 {mp x y m w4 neg w2 d w4 neg w2 neg d w2 0 d  w4 neg w2 neg d w2 0 d w4 neg w2 d w2 0 d w4 neg w2 d w4 neg w2 neg d cl f} def
/m40 {mp x y m w4 w2 d w4 w4 neg d w2 neg w4 neg d w2 w4 neg d w4 neg w4 neg d w4 neg w2 d w4 neg w2 neg d w4 neg w4 d w2 w4 d w2 neg w4 d w4 w4 d w4 w2 neg d cl s} def
/m41 {mp x y m w4 w2 d w4 w4 neg d w2 neg w4 neg d w2 w4 neg d w4 neg w4 neg d w4 neg w2 d w4 neg w2 neg d w4 neg w4 d w2 w4 d w2 neg w4 d w4 w4 d w4 w2 neg d cl f} def
/m42 {mp x y w2 add m w8 neg w2 -3 4 div mul d w2 -3 4 div mul w8 neg d w2 3 4 div mul w8 neg d w8 w2 -3 4 div mul d w8 w2 3 4 div mul d w2 3 4 div mul w8 d w2 -3 4 div mul w8 d w8 neg w2 3 4 div mul d cl s} def
/m43 {mp x y w2 add m w8 neg w2 -3 4 div mul d w2 -3 4 div mul w8 neg d w2 3 4 div mul w8 neg d w8 w2 -3 4 div mul d w8 w2 3 4 div mul d w2 3 4 div mul w8 d w2 -3 4 div mul w8 d w8 neg w2 3 4 div mul d cl f} def
/m44 {mp x y m w6 neg w2 d w2 2 3 div mul 0 d w6 neg w2 neg d w2 w6 d 0 w2 -2 3 div mul d w2 neg w6 d w6 w2 neg d w2 -2 3 div mul 0 d w6 w2 d w2 neg w6 neg d 0 w2 2 3 div mul d w2 w6 neg d cl s} def
/m45 {mp x y m w6 neg w2 d w2 2 3 div mul 0 d w6 neg w2 neg d w2 w6 d 0 w2 -2 3 div mul d w2 neg w6 d w6 w2 neg d w2 -2 3 div mul 0 d w6 w2 d w2 neg w6 neg d 0 w2 2 3 div mul d w2 w6 neg d cl f} def
/m46 {mp x y w4 add m w4 neg w4 d w4 neg w4 neg d  w4 w4 neg d w4 neg w4 neg d w4 w4 neg d w4 w4 d w4 w4 neg d w4 w4 d w4 neg w4 d w4 w4 d w4 neg w4 d w4 neg w4 neg d cl s} def
/m47 {mp x y w4 add m w4 neg w4 d w4 neg w4 neg d w4 w4 neg d w4 neg w4 neg d  w4 w4 neg d w4 w4 d w4 w4 neg d w4 w4 d w4 neg w4 d w4 w4 d w4 neg w4 d w4 neg w4 neg d cl f} def
/m48 {mp x y w4 add m w4 neg w4 d w4 neg w4 neg d w4 w4 neg d  w4 neg w4 neg d w4 w4 neg d w4 w4 d w4 w4 neg d w4 w4 d w4 neg w4 d w4 w4 d w4 neg w4 d w4 neg w4 neg d  w4 w4 neg d w4 neg w4 neg d w4 neg w4 d w4 w4 d cl f} def
/m49 {mp x w2 sub w3 add y w2 sub w3 add m  0 w3 neg d w3 0 d 0 w3 d w3 0 d 0 w3 d w3 neg 0 d 0 w3 d w3 neg 0 d 0 w3 neg d w3 neg 0 d 0 w3 neg d w3 0 d 0 w3 d w3 0 d 0 w3 neg d w3 neg 0 d cl f } def
/m2 {mp x y w2 sub m 0 w d x w2 sub y m w 0 d s} def
/m5 {mp x w2 sub y w2 sub m w w d x w2 sub y w2 add m w w neg d s} def
%%IncludeResource: ProcSet (FontSetInit)
%%IncludeResource: font Times-Roman
%%IncludeResource: font Times-Italic
%%IncludeResource: font Times-Bold
%%IncludeResource: font Times-BoldItalic
%%IncludeResource: font Helvetica
%%IncludeResource: font Helvetica-Oblique
%%IncludeResource: font Helvetica-Bold
%%IncludeResource: font Helvetica-BoldOblique
%%IncludeResource: font Courier
%%IncludeResource: font Courier-Oblique
%%IncludeResource: font Courier-Bold
%%IncludeResource: font Courier-BoldOblique
%%IncludeResource: font Symbol
%%IncludeResource: font ZapfDingbats
/reEncode {exch findfont dup length dict begin {1 index /FID eq  {pop pop} {def} ifelse } forall /Encoding exch def currentdict end dup /FontName get exch definefont pop } def [/Times-Bold /Times-Italic /Times-BoldItalic /Helvetica /Helvetica-Oblique
 /Helvetica-Bold /Helvetica-BoldOblique /Courier /Courier-Oblique /Courier-Bold /Courier-BoldOblique /Times-Roman /AvantGarde-Book /AvantGarde-BookOblique /AvantGarde-Demi /AvantGarde-DemiOblique /Bookman-Demi /Bookman-DemiItalic /Bookman-Light
 /Bookman-LightItalic /Helvetica-Narrow /Helvetica-Narrow-Bold /Helvetica-Narrow-BoldOblique /Helvetica-Narrow-Oblique /NewCenturySchlbk-Roman /NewCenturySchlbk-Bold /NewCenturySchlbk-BoldItalic /NewCenturySchlbk-Italic /Palatino-Bold
 /Palatino-BoldItalic /Palatino-Italic /Palatino-Roman ] {ISOLatin1Encoding reEncode } forall
%%EndProlog
%%BeginSetup
%%EndSetup
newpath  gsave  .25 .25 scale  gsave  0 0 t black[  ] 0 sd 3 lw 1 1 1 c 2268 2184 0 0 bf black 1 1 1 c 1791 1726 363 349 bf black 1791 1726 363 349 bl 6 lw 1 1 1 c black 363 349 m 1791 X s 3 lw 363 349 m 1791 X s 592 401 m -52 Y s 644 375 m -26 Y s
 696 375 m -26 Y s 748 375 m -26 Y s 800 375 m -26 Y s 852 401 m -52 Y s 904 375 m -26 Y s 957 375 m -26 Y s 1009 375 m -26 Y s 1061 375 m -26 Y s 1113 401 m -52 Y s 1165 375 m -26 Y s 1217 375 m -26 Y s 1269 375 m -26 Y s 1321 375 m -26 Y s 1373 401
 m -52 Y s 1425 375 m -26 Y s 1477 375 m -26 Y s 1529 375 m -26 Y s 1581 375 m -26 Y s 1634 401 m -52 Y s 1686 375 m -26 Y s 1738 375 m -26 Y s 1790 375 m -26 Y s 1842 375 m -26 Y s 1894 401 m -52 Y s 1946 375 m -26 Y s 1998 375 m -26 Y s 2050 375 m
 -26 Y s 2102 375 m -26 Y s 2154 401 m -52 Y s 592 401 m -52 Y s 540 375 m -26 Y s 488 375 m -26 Y s 436 375 m -26 Y s 384 375 m -26 Y s
 gsave  2268 2184 0 0 C 508.151 254.075 t 0 r /Helvetica findfont 102.389 sf 0 0 m (500) show NC gr 
 gsave  2268 2184 0 0 C 735.681 254.075 t 0 r /Helvetica findfont 102.389 sf 0 0 m (1000) show NC gr 
 gsave  2268 2184 0 0 C 997.34 254.075 t 0 r /Helvetica findfont 102.389 sf 0 0 m (1500) show NC gr 
 gsave  2268 2184 0 0 C 1259 254.075 t 0 r /Helvetica findfont 102.389 sf 0 0 m (2000) show NC gr 
 gsave  2268 2184 0 0 C 1516.87 254.075 t 0 r /Helvetica findfont 102.389 sf 0 0 m (2500) show NC gr 
 gsave  2268 2184 0 0 C 1778.53 254.075 t 0 r /Helvetica findfont 102.389 sf 0 0 m (3000) show NC gr 
 gsave  2268 2184 0 0 C 2040.19 254.075 t 0 r /Helvetica findfont 102.389 sf 0 0 m (3500) show NC gr 
 gsave  2268 2184 0 0 C 1839.2 87.2199 t 0 r /Helvetica findfont 102.389 sf 0 0 m (  [GeV]) show NC gr 
 gsave  2268 2184 0 0 C 1706.48 56.8825 t 0 r /Helvetica findfont 68.259 sf 0 0 m (T,jet) show NC gr 
 gsave  2268 2184 0 0 C 1642.01 87.2199 t 0 r /Helvetica findfont 102.389 sf 0 0 m (E) show NC gr  363 2075 m 1791 X s 592 2023 m 52 Y s 644 2049 m 26 Y s 696 2049 m 26 Y s 748 2049 m 26 Y s 800 2049 m 26 Y s 852 2023 m 52 Y s 904 2049 m 26 Y s 957
 2049 m 26 Y s 1009 2049 m 26 Y s 1061 2049 m 26 Y s 1113 2023 m 52 Y s 1165 2049 m 26 Y s 1217 2049 m 26 Y s 1269 2049 m 26 Y s 1321 2049 m 26 Y s 1373 2023 m 52 Y s 1425 2049 m 26 Y s 1477 2049 m 26 Y s 1529 2049 m 26 Y s 1581 2049 m 26 Y s 1634
 2023 m 52 Y s 1686 2049 m 26 Y s 1738 2049 m 26 Y s 1790 2049 m 26 Y s 1842 2049 m 26 Y s 1894 2023 m 52 Y s 1946 2049 m 26 Y s 1998 2049 m 26 Y s 2050 2049 m 26 Y s 2102 2049 m 26 Y s 2154 2023 m 52 Y s 592 2023 m 52 Y s 540 2049 m 26 Y s 488 2049
 m 26 Y s 436 2049 m 26 Y s 384 2049 m 26 Y s 363 349 m 1726 Y s 417 349 m -54 X s
 gsave  2268 2184 0 0 C 303.373 352.672 t 0 r /Helvetica findfont 68.259 sf 0 0 m (3) show NC gr 
 gsave  2268 2184 0 0 C 265.452 352.672 t 0 r /Symbol findfont 68.259 sf 0 0 m (-) show NC gr 
 gsave  2268 2184 0 0 C 155.479 303.373 t 0 r /Helvetica findfont 102.389 sf 0 0 m (10) show NC gr  390 400 m -27 X s 390 429 m -27 X s 390 450 m -27 X s 390 467 m -27 X s 390 480 m -27 X s 390 491 m -27 X s 390 501 m -27 X s 390 509 m -27 X s 417
 517 m -54 X s
 gsave  2268 2184 0 0 C 303.373 515.735 t 0 r /Helvetica findfont 68.259 sf 0 0 m (2) show NC gr 
 gsave  2268 2184 0 0 C 265.452 515.735 t 0 r /Symbol findfont 68.259 sf 0 0 m (-) show NC gr 
 gsave  2268 2184 0 0 C 155.479 470.229 t 0 r /Helvetica findfont 102.389 sf 0 0 m (10) show NC gr  390 567 m -27 X s 390 597 m -27 X s 390 618 m -27 X s 390 634 m -27 X s 390 647 m -27 X s 390 659 m -27 X s 390 668 m -27 X s 390 677 m -27 X s 417
 685 m -54 X s
 gsave  2268 2184 0 0 C 314.75 682.59 t 0 r /Helvetica findfont 68.259 sf 0 0 m (1) show NC gr 
 gsave  2268 2184 0 0 C 276.828 682.59 t 0 r /Symbol findfont 68.259 sf 0 0 m (-) show NC gr 
 gsave  2268 2184 0 0 C 166.855 637.084 t 0 r /Helvetica findfont 102.389 sf 0 0 m (10) show NC gr  390 735 m -27 X s 390 764 m -27 X s 390 785 m -27 X s 390 802 m -27 X s 390 815 m -27 X s 390 826 m -27 X s 390 836 m -27 X s 390 844 m -27 X s 417
 852 m -54 X s
 gsave  2268 2184 0 0 C 303.373 811.524 t 0 r /Helvetica findfont 102.389 sf 0 0 m (1) show NC gr  390 902 m -27 X s 390 932 m -27 X s 390 953 m -27 X s 390 969 m -27 X s 390 982 m -27 X s 390 994 m -27 X s 390 1003 m -27 X s 390 1012 m -27 X s 417
 1020 m -54 X s
 gsave  2268 2184 0 0 C 231.322 982.172 t 0 r /Helvetica findfont 102.389 sf 0 0 m (10) show NC gr  390 1070 m -27 X s 390 1099 m -27 X s 390 1120 m -27 X s 390 1137 m -27 X s 390 1150 m -27 X s 390 1161 m -27 X s 390 1171 m -27 X s 390 1179 m -27 X
 s 417 1187 m -54 X s
 gsave  2268 2184 0 0 C 303.373 1186.95 t 0 r /Helvetica findfont 68.259 sf 0 0 m (2) show NC gr 
 gsave  2268 2184 0 0 C 193.401 1141.44 t 0 r /Helvetica findfont 102.389 sf 0 0 m (10) show NC gr  390 1237 m -27 X s 390 1267 m -27 X s 390 1288 m -27 X s 390 1304 m -27 X s 390 1317 m -27 X s 390 1329 m -27 X s 390 1338 m -27 X s 390 1347 m -27 X
 s 417 1355 m -54 X s
 gsave  2268 2184 0 0 C 303.373 1357.6 t 0 r /Helvetica findfont 68.259 sf 0 0 m (3) show NC gr 
 gsave  2268 2184 0 0 C 193.401 1308.3 t 0 r /Helvetica findfont 102.389 sf 0 0 m (10) show NC gr  390 1405 m -27 X s 390 1435 m -27 X s 390 1455 m -27 X s 390 1472 m -27 X s 390 1485 m -27 X s 390 1496 m -27 X s 390 1506 m -27 X s 390 1514 m -27 X s
 417 1522 m -54 X s
 gsave  2268 2184 0 0 C 303.373 1520.66 t 0 r /Helvetica findfont 68.259 sf 0 0 m (4) show NC gr 
 gsave  2268 2184 0 0 C 193.401 1475.15 t 0 r /Helvetica findfont 102.389 sf 0 0 m (10) show NC gr  390 1573 m -27 X s 390 1602 m -27 X s 390 1623 m -27 X s 390 1639 m -27 X s 390 1652 m -27 X s 390 1664 m -27 X s 390 1673 m -27 X s 390 1682 m -27 X
 s 417 1690 m -54 X s
 gsave  2268 2184 0 0 C 303.373 1691.31 t 0 r /Helvetica findfont 68.259 sf 0 0 m (5) show NC gr 
 gsave  2268 2184 0 0 C 193.401 1642.01 t 0 r /Helvetica findfont 102.389 sf 0 0 m (10) show NC gr  390 1740 m -27 X s 390 1770 m -27 X s 390 1790 m -27 X s 390 1807 m -27 X s 390 1820 m -27 X s 390 1831 m -27 X s 390 1841 m -27 X s 390 1849 m -27 X
 s 417 1857 m -54 X s
 gsave  2268 2184 0 0 C 303.373 1858.16 t 0 r /Helvetica findfont 68.259 sf 0 0 m (6) show NC gr 
 gsave  2268 2184 0 0 C 193.401 1808.86 t 0 r /Helvetica findfont 102.389 sf 0 0 m (10) show NC gr  390 1908 m -27 X s 390 1937 m -27 X s 390 1958 m -27 X s 390 1974 m -27 X s 390 1987 m -27 X s 390 1999 m -27 X s 390 2008 m -27 X s 390 2017 m -27 X
 s 417 2025 m -54 X s
 gsave  2268 2184 0 0 C 303.373 2021.23 t 0 r /Helvetica findfont 68.259 sf 0 0 m (7) show NC gr 
 gsave  2268 2184 0 0 C 193.401 1975.72 t 0 r /Helvetica findfont 102.389 sf 0 0 m (10) show NC gr  390 2075 m -27 X s
 gsave  2268 2184 0 0 C 121.349 1679.93 t 90 r /Helvetica findfont 102.389 sf 0 0 m ( [fb/GeV]) show NC gr 
 gsave  2268 2184 0 0 C 159.271 1547.2 t 90 r /Helvetica findfont 68.259 sf 0 0 m (T,jet) show NC gr 
 gsave  2268 2184 0 0 C 121.349 1391.73 t 90 r /Helvetica findfont 102.389 sf 0 0 m (/dE) show NC gr 
 gsave  2268 2184 0 0 C 159.271 1315.88 t 90 r /Helvetica findfont 68.259 sf 0 0 m (jet) show NC gr 
 gsave  2268 2184 0 0 C 121.349 1255.21 t 90 r /Symbol findfont 102.389 sf 0 0 m (s) show NC gr 
 gsave  2268 2184 0 0 C 121.349 1202.12 t 90 r /Helvetica findfont 102.389 sf 0 0 m (d) show NC gr  2154 349 m 1726 Y s 2101 349 m 53 X s 2127 400 m 27 X s 2127 429 m 27 X s 2127 450 m 27 X s 2127 467 m 27 X s 2127 480 m 27 X s 2127 491 m 27 X s 2127
 501 m 27 X s 2127 509 m 27 X s 2101 517 m 53 X s 2127 567 m 27 X s 2127 597 m 27 X s 2127 618 m 27 X s 2127 634 m 27 X s 2127 647 m 27 X s 2127 659 m 27 X s 2127 668 m 27 X s 2127 677 m 27 X s 2101 685 m 53 X s 2127 735 m 27 X s 2127 764 m 27 X s
 2127 785 m 27 X s 2127 802 m 27 X s 2127 815 m 27 X s 2127 826 m 27 X s 2127 836 m 27 X s 2127 844 m 27 X s 2101 852 m 53 X s 2127 902 m 27 X s 2127 932 m 27 X s 2127 953 m 27 X s 2127 969 m 27 X s 2127 982 m 27 X s 2127 994 m 27 X s 2127 1003 m 27
 X s 2127 1012 m 27 X s 2101 1020 m 53 X s 2127 1070 m 27 X s 2127 1099 m 27 X s 2127 1120 m 27 X s 2127 1137 m 27 X s 2127 1150 m 27 X s 2127 1161 m 27 X s 2127 1171 m 27 X s 2127 1179 m 27 X s 2101 1187 m 53 X s 2127 1237 m 27 X s 2127 1267 m 27 X
 s 2127 1288 m 27 X s 2127 1304 m 27 X s 2127 1317 m 27 X s 2127 1329 m 27 X s 2127 1338 m 27 X s 2127 1347 m 27 X s 2101 1355 m 53 X s 2127 1405 m 27 X s 2127 1435 m 27 X s 2127 1455 m 27 X s 2127 1472 m 27 X s 2127 1485 m 27 X s 2127 1496 m 27 X s
 2127 1506 m 27 X s 2127 1514 m 27 X s 2101 1522 m 53 X s 2127 1573 m 27 X s 2127 1602 m 27 X s 2127 1623 m 27 X s 2127 1639 m 27 X s 2127 1652 m 27 X s 2127 1664 m 27 X s 2127 1673 m 27 X s 2127 1682 m 27 X s 2101 1690 m 53 X s 2127 1740 m 27 X s
 2127 1770 m 27 X s 2127 1790 m 27 X s 2127 1807 m 27 X s 2127 1820 m 27 X s 2127 1831 m 27 X s 2127 1841 m 27 X s 2127 1849 m 27 X s 2101 1857 m 53 X s 2127 1908 m 27 X s 2127 1937 m 27 X s 2127 1958 m 27 X s 2127 1974 m 27 X s 2127 1987 m 27 X s
 2127 1999 m 27 X s 2127 2008 m 27 X s 2127 2017 m 27 X s 2101 2025 m 53 X s 2127 2075 m 27 X s 1 1 0 c 52 12 384 1988 bf black 1 1 0 c 52 10 436 1768 bf black 1 1 0 c 52 13 488 1629 bf black 1 1 0 c 52 13 540 1521 bf black 1 1 0 c 52 12 592 1433 bf
 black 1 1 0 c 52 14 644 1362 bf black 1 1 0 c 52 16 696 1297 bf black 1 1 0 c 52 17 748 1239 bf black 1 1 0 c 52 18 800 1187 bf black 1 1 0 c 52 20 852 1140 bf black 1 1 0 c 53 20 904 1092 bf black 1 1 0 c 52 21 957 1051 bf black 1 1 0 c 52 22 1009
 1011 bf black 1 1 0 c 52 23 1061 973 bf black 1 1 0 c 52 24 1113 936 bf black 1 1 0 c 52 25 1165 907 bf black 1 1 0 c 52 25 1217 867 bf black 1 1 0 c 52 26 1269 841 bf black 1 1 0 c 52 27 1321 807 bf black 1 1 0 c 52 26 1373 771 bf black 1 1 0 c 52
 28 1425 742 bf black 1 1 0 c 52 30 1477 724 bf black 1 1 0 c 52 29 1529 675 bf black 1 1 0 c 53 30 1581 656 bf black 1 1 0 c 52 31 1634 622 bf black 1 1 0 c 52 32 1686 599 bf black 1 1 0 c 52 33 1738 566 bf black 1 1 0 c 52 35 1790 544 bf black 1 1
 0 c 52 32 1842 507 bf black 1 1 0 c 52 35 1894 479 bf black 1 1 0 c 52 36 1946 453 bf black 1 1 0 c 52 37 1998 425 bf black 1 1 0 c 52 38 2050 396 bf black 1 1 0 c 52 40 2102 356 bf black 1 1 0 c black 1 1 0 c 52 11 384 1989 bf black 1 1 0 c 52 9
 436 1768 bf black 1 1 0 c 52 11 488 1630 bf black 1 1 0 c 52 11 540 1522 bf black 1 1 0 c 52 9 592 1434 bf black 1 1 0 c 52 11 644 1363 bf black 1 1 0 c 52 11 696 1299 bf black 1 1 0 c 52 11 748 1241 bf black 1 1 0 c 52 12 800 1189 bf black 1 1 0 c
 52 13 852 1143 bf black 1 1 0 c 53 11 904 1095 bf black 1 1 0 c 52 11 957 1054 bf black 1 1 0 c 52 12 1009 1014 bf black 1 1 0 c 52 11 1061 977 bf black 1 1 0 c 52 12 1113 940 bf black 1 1 0 c 52 14 1165 911 bf black 1 1 0 c 52 10 1217 872 bf black
 1 1 0 c 52 14 1269 845 bf black 1 1 0 c 52 13 1321 812 bf black 1 1 0 c 52 10 1373 776 bf black 1 1 0 c 52 12 1425 747 bf black 1 1 0 c 52 17 1477 728 bf black 1 1 0 c 52 7 1529 681 bf black 1 1 0 c 53 14 1581 661 bf black 1 1 0 c 52 11 1634 628 bf
 black 1 1 0 c 52 14 1686 604 bf black 1 1 0 c 52 13 1738 572 bf black 1 1 0 c 52 16 1790 550 bf black 1 1 0 c 52 12 1842 513 bf black 1 1 0 c 52 12 1894 485 bf black 1 1 0 c 52 15 1946 459 bf black 1 1 0 c 52 17 1998 431 bf black 1 1 0 c 52 17 2050
 402 bf black 1 1 0 c 52 12 2102 364 bf black 1 1 0 c black 9 lw 410 1995 m -26 X s 410 1995 m 26 X s 462 1774 m -26 X s 462 1774 m 26 X s 514 1637 m -26 X s 514 1637 m 26 X s 566 1529 m -26 X s 566 1529 m 26 X s 618 1440 m -26 X s 618 1440 m 26 X s
 670 1370 m -26 X s 670 1370 m 26 X s 722 1306 m -26 X s 722 1306 m 26 X s 774 1248 m -26 X s 774 1248 m 26 X s 826 1197 m -26 X s 826 1197 m 26 X s 878 1151 m -26 X s 878 1151 m 26 X s 930 1102 m -26 X s 930 1102 m 27 X s 983 1061 m -26 X s 983 1061
 m 26 X s 1035 1022 m -26 X s 1035 1022 m 26 X s 1087 984 m -26 X s 1087 984 m 26 X s 1139 948 m -26 X s 1139 948 m 26 X s 1191 919 m -26 X s 1191 919 m 26 X s 1243 879 m -26 X s 1243 879 m 26 X s 1295 853 m -26 X s 1295 853 m 26 X s 1347 820 m -26 X
 s 1347 820 m 26 X s 1399 783 m -26 X s 1399 783 m 26 X s 1451 755 m -26 X s 1451 755 m 26 X s 1503 738 m -26 X s 1503 738 m 26 X s 1555 687 m -26 X s 1555 687 m 26 X s 1608 670 m -27 X s 1608 670 m 26 X s 1660 635 m -26 X s 1660 635 m 26 X s 1712
 613 m -26 X s 1712 613 m 26 X s 1764 581 m -26 X s 1764 581 m 26 X s 1816 559 m -26 X s 1816 559 m 26 X s 1868 521 m -26 X s 1868 521 m 26 X s 1920 494 m -26 X s 1920 494 m 26 X s 1972 468 m -26 X s 1972 468 m 26 X s 2024 441 m -26 X s 2024 441 m 26
 X s 2076 412 m -26 X s 2076 412 m 26 X s 2128 372 m -26 X s 2128 372 m 26 X s 6 lw 1399 794 m 2 Y s 1399 796 m cl s 1399 764 m -7 Y s 1399 757 m cl s 1451 770 m 5 Y s 1451 775 m cl s 1451 740 m -11 Y s 1451 729 m cl s 1503 750 m 7 Y s 1503 757 m cl
 s 1503 720 m -17 Y s 1503 703 m cl s 1555 724 m 10 Y s 1555 734 m cl s 1555 693 m -25 Y s 1555 668 m cl s 1608 721 m 11 Y s 1608 732 m cl s 1608 691 m -26 Y s 1608 665 m cl s 1660 691 m 15 Y s 1660 706 m cl s 1660 660 m -40 Y s 1660 620 m cl s 1712
 678 m 18 Y s 1712 696 m cl s 1712 647 m -48 Y s 1712 599 m cl s 1764 674 m 19 Y s 1764 693 m cl s 1764 644 m -51 Y s 1764 593 m cl s 1816 656 m 22 Y s 1816 678 m cl s 1816 626 m -67 Y s 1816 559 m cl s 1868 668 m 20 Y s 1868 688 m cl s 1868 638 m
 -56 Y s 1868 582 m cl s 1920 663 m 21 Y s 1920 684 m cl s 1920 632 m -60 Y s 1920 572 m cl s 1972 671 m 19 Y s 1972 690 m cl s 1972 641 m -53 Y s 1972 588 m cl s 2024 659 m 22 Y s 2024 681 m cl s 2024 629 m -63 Y s 2024 566 m cl s 2076 686 m 17 Y s
 2076 703 m cl s 2076 656 m -43 Y s 2076 613 m cl s 2128 678 m 18 Y s 2128 696 m cl s 2128 648 m -48 Y s 2128 600 m cl s 1 1 1 c black 3 lw /w 36 def /w2 {w 2 div} def /w3 {w 3 div} def 410 1988 462 1766 514 1649 566 1530 618 1447 670 1364 722 1306
 774 1247 826 1188 878 1135 930 1093 983 1063 1035 1027 1087 986 1139 942 1191 906 1243 887 1295 861 1347 828 1399 779 1451 755 1503 735 1555 708 1608 706 1660 675 1712 662 1764 659 1816 641 1868 653 1920 647 1972 656 2024 644 2076 671 2128 663 34 {
 m20} R 6 lw
 gsave  2268 2184 0 0 C 781.187 1858.16 t 0 r /Helvetica findfont 102.389 sf 0 0 m (= 14 TeV) show NC gr 
 gsave  2268 2184 0 0 C 731.888 1858.16 t 0 r /Helvetica findfont 102.389 sf 0 0 m (s) show NC gr  698 1915 m 11 -61 d s 3 lw 709 1854 m 12 91 d s 721 1945 m 60 X s
 gsave  2268 2184 0 0 C 1441.02 1858.16 t 0 r /Helvetica findfont 102.389 sf 0 0 m (|<0.5) show NC gr 
 gsave  2268 2184 0 0 C 1365.18 1805.07 t 0 r /Helvetica findfont 68.259 sf 0 0 m (jet) show NC gr 
 gsave  2268 2184 0 0 C 1308.3 1858.16 t 0 r /Symbol findfont 102.389 sf 0 0 m (h) show NC gr 
 gsave  2268 2184 0 0 C 1289.34 1858.16 t 0 r /Helvetica findfont 102.389 sf 0 0 m (|) show NC gr  /w 39 def /w2 {w 2 div} def /w3 {w 3 div} def 1193 1638 m20
 gsave  2268 2184 0 0 C 1243.83 1600.29 t 0 r /Helvetica findfont 102.389 sf 0 0 m (Data 2009) show NC gr 
 gsave  2268 2184 0 0 C 1243.83 1425.86 t 0 r /Helvetica findfont 102.389 sf 0 0 m (NLO QCD) show NC gr  1 1 0 c 113 65 1093 1431 bf black 12 lw 1093 1463 m 113 X s
 gsave  2268 2184 0 0 C 451.268 439.891 t 0 r /Helvetica-BoldOblique findfont 102.389 sf 0 0 m (ATLAS) show NC gr 
 gsave  2268 2184 0 0 C 822.9 439.891 t 0 r /Helvetica findfont 102.389 sf 0 0 m (Preliminary) show NC gr 
 gr  gr showpage
end
%%EOF
